endpoint body is :https://reqres.in/api/users/2

Request body is :{
    "name": "morpheus",
    "job": "zion resident"
}

response body is :{"name":"morpheus","job":"zion resident","id":"308","createdAt":"2024-01-05T15:00:15.490Z"}

